module gateway

go 1.18

require (
	github.com/grpc-ecosystem/grpc-gateway/v2 v2.10.3
	github.com/swaggest/swgui v1.4.5
	google.golang.org/genproto v0.0.0-20220519153652-3a47de7e79bd
	google.golang.org/grpc v1.46.2
	google.golang.org/protobuf v1.28.0
	k8s.io/klog v1.0.0
)

require (
	github.com/golang/protobuf v1.5.2 // indirect
	github.com/shurcooL/httpgzip v0.0.0-20190720172056-320755c1c1b0 // indirect
	golang.org/x/net v0.0.0-20220127200216-cd36cc0744dd // indirect
	golang.org/x/sys v0.0.0-20211216021012-1d35b9e2eb4e // indirect
	golang.org/x/text v0.3.7 // indirect
)
